mc16_13TeV.423100.Pythia8EvtGen_A14NNPDF23LO_gammajet_DP17_35.deriv.DAOD_JETM4.e3791_s3126_r10201_r10210_p3401
mc16_13TeV.423102.Pythia8EvtGen_A14NNPDF23LO_gammajet_DP50_70.deriv.DAOD_JETM4.e3791_s3126_r10201_r10210_p3401
mc16_13TeV.423103.Pythia8EvtGen_A14NNPDF23LO_gammajet_DP70_140.deriv.DAOD_JETM4.e3791_s3126_r10201_r10210_p3401
mc16_13TeV.423104.Pythia8EvtGen_A14NNPDF23LO_gammajet_DP140_280.deriv.DAOD_JETM4.e3791_s3126_r10201_r10210_p3401
mc16_13TeV.423105.Pythia8EvtGen_A14NNPDF23LO_gammajet_DP280_500.deriv.DAOD_JETM4.e3791_s3126_r10201_r10210_p3401
mc16_13TeV.423106.Pythia8EvtGen_A14NNPDF23LO_gammajet_DP500_800.deriv.DAOD_JETM4.e3791_s3126_r10201_r10210_p3401
