mc16_13TeV:mc16_13TeV.364114.Sherpa_221_NNPDF30NNLO_Zee_MAXHTPTV0_70_CVetoBVeto.deriv.DAOD_JETM3.e5299_e5984_s3126_r9781_r9778_p3371
mc16_13TeV:mc16_13TeV.364115.Sherpa_221_NNPDF30NNLO_Zee_MAXHTPTV0_70_CFilterBVeto.deriv.DAOD_JETM3.e5299_e5984_s3126_r9781_r9778_p3371
mc16_13TeV:mc16_13TeV.364116.Sherpa_221_NNPDF30NNLO_Zee_MAXHTPTV0_70_BFilter.deriv.DAOD_JETM3.e5299_e5984_s3126_r9781_r9778_p3371
mc16_13TeV:mc16_13TeV.364117.Sherpa_221_NNPDF30NNLO_Zee_MAXHTPTV70_140_CVetoBVeto.deriv.DAOD_JETM3.e5299_e5984_s3126_r9781_r9778_p3371
mc16_13TeV:mc16_13TeV.364118.Sherpa_221_NNPDF30NNLO_Zee_MAXHTPTV70_140_CFilterBVeto.deriv.DAOD_JETM3.e5299_e5984_s3126_r9781_r9778_p3371
mc16_13TeV:mc16_13TeV.364119.Sherpa_221_NNPDF30NNLO_Zee_MAXHTPTV70_140_BFilter.deriv.DAOD_JETM3.e5299_e5984_s3126_r9781_r9778_p3371
mc16_13TeV:mc16_13TeV.364120.Sherpa_221_NNPDF30NNLO_Zee_MAXHTPTV140_280_CVetoBVeto.deriv.DAOD_JETM3.e5299_e5984_s3126_r9781_r9778_p3371
mc16_13TeV:mc16_13TeV.364121.Sherpa_221_NNPDF30NNLO_Zee_MAXHTPTV140_280_CFilterBVeto.deriv.DAOD_JETM3.e5299_e5984_s3126_r9781_r9778_p3371
mc16_13TeV:mc16_13TeV.364122.Sherpa_221_NNPDF30NNLO_Zee_MAXHTPTV140_280_BFilter.deriv.DAOD_JETM3.e5299_e5984_s3126_r9781_r9778_p3371
mc16_13TeV:mc16_13TeV.364123.Sherpa_221_NNPDF30NNLO_Zee_MAXHTPTV280_500_CVetoBVeto.deriv.DAOD_JETM3.e5299_e5984_s3126_r9781_r9778_p3371
mc16_13TeV:mc16_13TeV.364124.Sherpa_221_NNPDF30NNLO_Zee_MAXHTPTV280_500_CFilterBVeto.deriv.DAOD_JETM3.e5299_e5984_s3126_r9781_r9778_p3371
mc16_13TeV:mc16_13TeV.364125.Sherpa_221_NNPDF30NNLO_Zee_MAXHTPTV280_500_BFilter.deriv.DAOD_JETM3.e5299_e5984_s3126_r9781_r9778_p3371
mc16_13TeV:mc16_13TeV.364126.Sherpa_221_NNPDF30NNLO_Zee_MAXHTPTV500_1000.deriv.DAOD_JETM3.e5299_e5984_s3126_r9781_r9778_p3371
mc16_13TeV:mc16_13TeV.364127.Sherpa_221_NNPDF30NNLO_Zee_MAXHTPTV1000_E_CMS.deriv.DAOD_JETM3.e5299_e5984_s3126_r9781_r9778_p3371
