mc16_13TeV.410470.PhPy8EG_A14_ttbar_hdamp258p75_nonallhad.deriv.DAOD_JETM3.e6337_e5984_s3126_r10201_r10210_p3495_tid13600573_00
mc16_13TeV.410647.PowhegPythia8EvtGen_A14_Wt_DR_inclusive_antitop.deriv.DAOD_JETM3.e6552_e5984_s3126_r10201_r10210_p3495_tid13600132_00
mc16_13TeV.410646.PowhegPythia8EvtGen_A14_Wt_DR_inclusive_top.deriv.DAOD_JETM3.e6552_e5984_s3126_r10201_r10210_p3495_tid13600589_00
