mc15_13TeV:mc15_13TeV.361068.Sherpa_CT10_llvv.merge.DAOD_JETM3.e3836_s2608_s2183_r6869_r6282_p2425/
mc15_13TeV:mc15_13TeV.361084.Sherpa_CT10_WqqZll.merge.DAOD_JETM3.e3836_s2608_s2183_r6869_r6282_p2425/
mc15_13TeV:mc15_13TeV.361086.Sherpa_CT10_ZqqZll.merge.DAOD_JETM3.e3926_s2608_s2183_r6869_r6282_p2425/
mc15_13TeV:mc15_13TeV.361106.PowhegPythia8EvtGen_AZNLOCTEQ6L1_Zee.merge.DAOD_JETM3.e3601_s2576_s2132_r6765_r6282_p2425/
mc15_13TeV:mc15_13TeV.361108.PowhegPythia8EvtGen_AZNLOCTEQ6L1_Ztautau.merge.DAOD_JETM3.e3601_s2576_s2132_r6765_r6282_p2425/
mc15_13TeV:mc15_13TeV.361372.Sherpa_CT10_Zee_Pt0_70_CVetoBVeto.merge.DAOD_JETM3.e3651_s2586_s2174_r6869_r6282_p2452/
mc15_13TeV:mc15_13TeV.361373.Sherpa_CT10_Zee_Pt0_70_CFilterBVeto.merge.DAOD_JETM3.e3651_s2586_s2174_r6869_r6282_p2452/
mc15_13TeV:mc15_13TeV.361374.Sherpa_CT10_Zee_Pt0_70_BFilter.merge.DAOD_JETM3.e3651_s2586_s2174_r6869_r6282_p2452/
mc15_13TeV:mc15_13TeV.361375.Sherpa_CT10_Zee_Pt70_140_CVetoBVeto.merge.DAOD_JETM3.e3651_s2586_s2174_r6869_r6282_p2452/
mc15_13TeV:mc15_13TeV.361376.Sherpa_CT10_Zee_Pt70_140_CFilterBVeto.merge.DAOD_JETM3.e3651_s2586_s2174_r6869_r6282_p2452/
mc15_13TeV:mc15_13TeV.361377.Sherpa_CT10_Zee_Pt70_140_BFilter.merge.DAOD_JETM3.e3651_s2586_s2174_r6869_r6282_p2452/
mc15_13TeV:mc15_13TeV.361378.Sherpa_CT10_Zee_Pt140_280_CVetoBVeto.merge.DAOD_JETM3.e3651_s2586_s2174_r6869_r6282_p2452/
mc15_13TeV:mc15_13TeV.361379.Sherpa_CT10_Zee_Pt140_280_CFilterBVeto.merge.DAOD_JETM3.e3651_s2586_s2174_r6869_r6282_p2452/
mc15_13TeV:mc15_13TeV.361380.Sherpa_CT10_Zee_Pt140_280_BFilter.merge.DAOD_JETM3.e3651_s2586_s2174_r6869_r6282_p2452/
# Missing higher Sherpa slices here.
mc15_13TeV:mc15_13TeV.410000.PowhegPythiaEvtGen_P2012_ttbar_hdamp172p5_nonallhad.merge.DAOD_JETM3.e3698_s2608_s2183_r6765_r6282_p2425/
