mc15_13TeV:mc15_13TeV.361500.MadGraphPythia8EvtGen_A14NNPDF23LO_Zee_Np0.merge.DAOD_JETM3.e3898_s2608_s2183_r6869_r6282_p2425/
mc15_13TeV:mc15_13TeV.361501.MadGraphPythia8EvtGen_A14NNPDF23LO_Zee_Np1.merge.DAOD_JETM3.e3898_s2608_s2183_r6869_r6282_p2425/
mc15_13TeV:mc15_13TeV.361502.MadGraphPythia8EvtGen_A14NNPDF23LO_Zee_Np2.merge.DAOD_JETM3.e3898_s2608_s2183_r6869_r6282_p2425/
mc15_13TeV:mc15_13TeV.361503.MadGraphPythia8EvtGen_A14NNPDF23LO_Zee_Np3.merge.DAOD_JETM3.e3898_s2608_s2183_r6869_r6282_p2425/
mc15_13TeV:mc15_13TeV.361504.MadGraphPythia8EvtGen_A14NNPDF23LO_Zee_Np4.merge.DAOD_JETM3.e3898_s2608_s2183_r6869_r6282_p2425/
