mc15_13TeV:mc15_13TeV.361106.PowhegPythia8EvtGen_AZNLOCTEQ6L1_Zee.merge.DAOD_JETM3.e3601_s2576_s2132_r7267_r6282_p2470/
mc15_13TeV:mc15_13TeV.361107.PowhegPythia8EvtGen_AZNLOCTEQ6L1_Zmumu.merge.DAOD_JETM3.e3601_s2576_s2132_r7267_r6282_p2470/
mc15_13TeV:mc15_13TeV.361372.Sherpa_CT10_Zee_Pt0_70_CVetoBVeto.merge.DAOD_JETM3.e3651_s2586_s2174_r7267_r6282_p2470/
mc15_13TeV:mc15_13TeV.361373.Sherpa_CT10_Zee_Pt0_70_CFilterBVeto.merge.DAOD_JETM3.e3651_s2586_s2174_r7267_r6282_p2470/
mc15_13TeV:mc15_13TeV.361374.Sherpa_CT10_Zee_Pt0_70_BFilter.merge.DAOD_JETM3.e3651_s2586_s2174_r7267_r6282_p2470/
mc15_13TeV:mc15_13TeV.361375.Sherpa_CT10_Zee_Pt70_140_CVetoBVeto.merge.DAOD_JETM3.e3651_s2586_s2174_r7267_r6282_p2470/
mc15_13TeV:mc15_13TeV.361376.Sherpa_CT10_Zee_Pt70_140_CFilterBVeto.merge.DAOD_JETM3.e3651_s2586_s2174_r7267_r6282_p2470/
mc15_13TeV:mc15_13TeV.361377.Sherpa_CT10_Zee_Pt70_140_BFilter.merge.DAOD_JETM3.e3651_s2586_s2174_r7267_r6282_p2470/
mc15_13TeV:mc15_13TeV.361378.Sherpa_CT10_Zee_Pt140_280_CVetoBVeto.merge.DAOD_JETM3.e3651_s2586_s2174_r7267_r6282_p2470/
mc15_13TeV:mc15_13TeV.361379.Sherpa_CT10_Zee_Pt140_280_CFilterBVeto.merge.DAOD_JETM3.e3651_s2586_s2174_r7267_r6282_p2470/
mc15_13TeV:mc15_13TeV.361380.Sherpa_CT10_Zee_Pt140_280_BFilter.merge.DAOD_JETM3.e3651_s2586_s2174_r7267_r6282_p2470/
mc15_13TeV:mc15_13TeV.361381.Sherpa_CT10_Zee_Pt280_500_CVetoBVeto.merge.DAOD_JETM3.e3741_s2608_s2183_r7267_r6282_p2470/
mc15_13TeV:mc15_13TeV.361381.Sherpa_CT10_Zee_Pt280_500_CVetoBVeto.merge.DAOD_JETM3.e4133_s2608_s2183_r7326_r6282_p2470/
mc15_13TeV:mc15_13TeV.361382.Sherpa_CT10_Zee_Pt280_500_CFilterBVeto.merge.DAOD_JETM3.e3741_s2608_s2183_r7267_r6282_p2470/
mc15_13TeV:mc15_13TeV.361382.Sherpa_CT10_Zee_Pt280_500_CFilterBVeto.merge.DAOD_JETM3.e4133_s2608_s2183_r7326_r6282_p2470/
mc15_13TeV:mc15_13TeV.361383.Sherpa_CT10_Zee_Pt280_500_BFilter.merge.DAOD_JETM3.e3741_s2608_s2183_r7267_r6282_p2470/
mc15_13TeV:mc15_13TeV.361383.Sherpa_CT10_Zee_Pt280_500_BFilter.merge.DAOD_JETM3.e4133_s2608_s2183_r7326_r6282_p2470/
mc15_13TeV:mc15_13TeV.361384.Sherpa_CT10_Zee_Pt500_700_CVetoBVeto.merge.DAOD_JETM3.e3741_s2608_s2183_r7267_r6282_p2470/
mc15_13TeV:mc15_13TeV.361384.Sherpa_CT10_Zee_Pt500_700_CVetoBVeto.merge.DAOD_JETM3.e4133_s2608_s2183_r7326_r6282_p2470/
mc15_13TeV:mc15_13TeV.361385.Sherpa_CT10_Zee_Pt500_700_CFilterBVeto.merge.DAOD_JETM3.e3741_s2608_s2183_r7267_r6282_p2470/
mc15_13TeV:mc15_13TeV.361385.Sherpa_CT10_Zee_Pt500_700_CFilterBVeto.merge.DAOD_JETM3.e4133_s2608_s2183_r7326_r6282_p2470/
mc15_13TeV:mc15_13TeV.361386.Sherpa_CT10_Zee_Pt500_700_BFilter.merge.DAOD_JETM3.e3741_s2608_s2183_r7267_r6282_p2470/
mc15_13TeV:mc15_13TeV.361386.Sherpa_CT10_Zee_Pt500_700_BFilter.merge.DAOD_JETM3.e4133_s2608_s2183_r7326_r6282_p2470/
mc15_13TeV:mc15_13TeV.361387.Sherpa_CT10_Zee_Pt700_1000_CVetoBVeto.merge.DAOD_JETM3.e3741_s2608_s2183_r7267_r6282_p2470/
mc15_13TeV:mc15_13TeV.361387.Sherpa_CT10_Zee_Pt700_1000_CVetoBVeto.merge.DAOD_JETM3.e4133_s2608_s2183_r7326_r6282_p2470/
mc15_13TeV:mc15_13TeV.361388.Sherpa_CT10_Zee_Pt700_1000_CFilterBVeto.merge.DAOD_JETM3.e3741_s2608_s2183_r7267_r6282_p2470/
mc15_13TeV:mc15_13TeV.361388.Sherpa_CT10_Zee_Pt700_1000_CFilterBVeto.merge.DAOD_JETM3.e4133_s2608_s2183_r7326_r6282_p2470/
mc15_13TeV:mc15_13TeV.361389.Sherpa_CT10_Zee_Pt700_1000_BFilter.merge.DAOD_JETM3.e3741_s2608_s2183_r7267_r6282_p2470/
mc15_13TeV:mc15_13TeV.361389.Sherpa_CT10_Zee_Pt700_1000_BFilter.merge.DAOD_JETM3.e4133_s2608_s2183_r7326_r6282_p2470/
mc15_13TeV:mc15_13TeV.361390.Sherpa_CT10_Zee_Pt1000_2000_CVetoBVeto.merge.DAOD_JETM3.e3741_s2608_s2183_r7267_r6282_p2470/
mc15_13TeV:mc15_13TeV.361390.Sherpa_CT10_Zee_Pt1000_2000_CVetoBVeto.merge.DAOD_JETM3.e4133_s2608_s2183_r7326_r6282_p2470/
mc15_13TeV:mc15_13TeV.361391.Sherpa_CT10_Zee_Pt1000_2000_CFilterBVeto.merge.DAOD_JETM3.e4133_s2608_s2183_r7326_r6282_p2470/
mc15_13TeV:mc15_13TeV.361392.Sherpa_CT10_Zee_Pt1000_2000_BFilter.merge.DAOD_JETM3.e4133_s2608_s2183_r7326_r6282_p2470/
mc15_13TeV:mc15_13TeV.361393.Sherpa_CT10_Zee_Pt2000_E_CMS_CVetoBVeto.merge.DAOD_JETM3.e4133_s2608_s2183_r7326_r6282_p2470/
mc15_13TeV:mc15_13TeV.361394.Sherpa_CT10_Zee_Pt2000_E_CMS_CFilterBVeto.merge.DAOD_JETM3.e4133_s2608_s2183_r7326_r6282_p2470/
mc15_13TeV:mc15_13TeV.361395.Sherpa_CT10_Zee_Pt2000_E_CMS_BFilter.merge.DAOD_JETM3.e4133_s2608_s2183_r7326_r6282_p2470/
mc15_13TeV:mc15_13TeV.361396.Sherpa_CT10_Zmumu_Pt0_70_CVetoBVeto.merge.DAOD_JETM3.e3651_s2586_s2174_r7267_r6282_p2470/
mc15_13TeV:mc15_13TeV.361398.Sherpa_CT10_Zmumu_Pt0_70_BFilter.merge.DAOD_JETM3.e3651_s2586_s2174_r7267_r6282_p2470/
mc15_13TeV:mc15_13TeV.361399.Sherpa_CT10_Zmumu_Pt70_140_CVetoBVeto.merge.DAOD_JETM3.e3651_s2586_s2174_r7267_r6282_p2470/
mc15_13TeV:mc15_13TeV.361400.Sherpa_CT10_Zmumu_Pt70_140_CFilterBVeto.merge.DAOD_JETM3.e3651_s2586_s2174_r7267_r6282_p2470/
mc15_13TeV:mc15_13TeV.361401.Sherpa_CT10_Zmumu_Pt70_140_BFilter.merge.DAOD_JETM3.e3651_s2586_s2174_r7267_r6282_p2470/
mc15_13TeV:mc15_13TeV.361402.Sherpa_CT10_Zmumu_Pt140_280_CVetoBVeto.merge.DAOD_JETM3.e3651_s2586_s2174_r7267_r6282_p2470/
mc15_13TeV:mc15_13TeV.361403.Sherpa_CT10_Zmumu_Pt140_280_CFilterBVeto.merge.DAOD_JETM3.e3651_s2586_s2174_r7267_r6282_p2470/
mc15_13TeV:mc15_13TeV.361404.Sherpa_CT10_Zmumu_Pt140_280_BFilter.merge.DAOD_JETM3.e3651_s2586_s2174_r7267_r6282_p2470/
mc15_13TeV:mc15_13TeV.361405.Sherpa_CT10_Zmumu_Pt280_500_CVetoBVeto.merge.DAOD_JETM3.e3741_s2608_s2183_r7267_r6282_p2470/
mc15_13TeV:mc15_13TeV.361405.Sherpa_CT10_Zmumu_Pt280_500_CVetoBVeto.merge.DAOD_JETM3.e4133_s2608_s2183_r7326_r6282_p2470/
mc15_13TeV:mc15_13TeV.361406.Sherpa_CT10_Zmumu_Pt280_500_CFilterBVeto.merge.DAOD_JETM3.e3741_s2608_s2183_r7267_r6282_p2470/
mc15_13TeV:mc15_13TeV.361406.Sherpa_CT10_Zmumu_Pt280_500_CFilterBVeto.merge.DAOD_JETM3.e4133_s2608_s2183_r7326_r6282_p2470/
mc15_13TeV:mc15_13TeV.361407.Sherpa_CT10_Zmumu_Pt280_500_BFilter.merge.DAOD_JETM3.e3741_s2608_s2183_r7267_r6282_p2470/
mc15_13TeV:mc15_13TeV.361407.Sherpa_CT10_Zmumu_Pt280_500_BFilter.merge.DAOD_JETM3.e4133_s2608_s2183_r7326_r6282_p2470/
mc15_13TeV:mc15_13TeV.361408.Sherpa_CT10_Zmumu_Pt500_700_CVetoBVeto.merge.DAOD_JETM3.e3741_s2608_s2183_r7267_r6282_p2470/
mc15_13TeV:mc15_13TeV.361408.Sherpa_CT10_Zmumu_Pt500_700_CVetoBVeto.merge.DAOD_JETM3.e4133_s2608_s2183_r7326_r6282_p2470/
mc15_13TeV:mc15_13TeV.361409.Sherpa_CT10_Zmumu_Pt500_700_CFilterBVeto.merge.DAOD_JETM3.e3741_s2608_s2183_r7267_r6282_p2470/
mc15_13TeV:mc15_13TeV.361409.Sherpa_CT10_Zmumu_Pt500_700_CFilterBVeto.merge.DAOD_JETM3.e4133_s2608_s2183_r7326_r6282_p2470/
mc15_13TeV:mc15_13TeV.361410.Sherpa_CT10_Zmumu_Pt500_700_BFilter.merge.DAOD_JETM3.e3741_s2608_s2183_r7267_r6282_p2470/
mc15_13TeV:mc15_13TeV.361410.Sherpa_CT10_Zmumu_Pt500_700_BFilter.merge.DAOD_JETM3.e4133_s2608_s2183_r7326_r6282_p2470/
mc15_13TeV:mc15_13TeV.361411.Sherpa_CT10_Zmumu_Pt700_1000_CVetoBVeto.merge.DAOD_JETM3.e3741_s2608_s2183_r7267_r6282_p2470/
mc15_13TeV:mc15_13TeV.361411.Sherpa_CT10_Zmumu_Pt700_1000_CVetoBVeto.merge.DAOD_JETM3.e4133_s2608_s2183_r7326_r6282_p2470/
mc15_13TeV:mc15_13TeV.361412.Sherpa_CT10_Zmumu_Pt700_1000_CFilterBVeto.merge.DAOD_JETM3.e3741_s2608_s2183_r7267_r6282_p2470/
mc15_13TeV:mc15_13TeV.361412.Sherpa_CT10_Zmumu_Pt700_1000_CFilterBVeto.merge.DAOD_JETM3.e4133_s2608_s2183_r7326_r6282_p2470/
mc15_13TeV:mc15_13TeV.361413.Sherpa_CT10_Zmumu_Pt700_1000_BFilter.merge.DAOD_JETM3.e3741_s2608_s2183_r7267_r6282_p2470/
mc15_13TeV:mc15_13TeV.361413.Sherpa_CT10_Zmumu_Pt700_1000_BFilter.merge.DAOD_JETM3.e4133_s2608_s2183_r7326_r6282_p2470/
mc15_13TeV:mc15_13TeV.361414.Sherpa_CT10_Zmumu_Pt1000_2000_CVetoBVeto.merge.DAOD_JETM3.e3741_s2608_s2183_r7267_r6282_p2470/
mc15_13TeV:mc15_13TeV.361414.Sherpa_CT10_Zmumu_Pt1000_2000_CVetoBVeto.merge.DAOD_JETM3.e4133_s2608_s2183_r7326_r6282_p2470/
mc15_13TeV:mc15_13TeV.361415.Sherpa_CT10_Zmumu_Pt1000_2000_CFilterBVeto.merge.DAOD_JETM3.e4133_s2608_s2183_r7326_r6282_p2470/
mc15_13TeV:mc15_13TeV.361416.Sherpa_CT10_Zmumu_Pt1000_2000_BFilter.merge.DAOD_JETM3.e4133_s2608_s2183_r7326_r6282_p2470/
mc15_13TeV:mc15_13TeV.361417.Sherpa_CT10_Zmumu_Pt2000_E_CMS_CVetoBVeto.merge.DAOD_JETM3.e4133_s2608_s2183_r7326_r6282_p2470/
mc15_13TeV:mc15_13TeV.361418.Sherpa_CT10_Zmumu_Pt2000_E_CMS_CFilterBVeto.merge.DAOD_JETM3.e4133_s2608_s2183_r7326_r6282_p2470/
mc15_13TeV:mc15_13TeV.361419.Sherpa_CT10_Zmumu_Pt2000_E_CMS_BFilter.merge.DAOD_JETM3.e4133_s2608_s2183_r7326_r6282_p2470/
