mc15_13TeV:mc15_13TeV.361700.AlpgenPythiaEvtGen_P2012_ZeeNp0.merge.DAOD_SUSY5.e4721_s2726_r7326_r6282_p2540/
mc15_13TeV:mc15_13TeV.361701.AlpgenPythiaEvtGen_P2012_ZeeNp1.merge.DAOD_SUSY5.e4721_s2726_r7326_r6282_p2540/
mc15_13TeV:mc15_13TeV.361702.AlpgenPythiaEvtGen_P2012_ZeeNp2.merge.DAOD_SUSY5.e4721_s2726_r7326_r6282_p2540/
mc15_13TeV:mc15_13TeV.361703.AlpgenPythiaEvtGen_P2012_ZeeNp3.merge.DAOD_SUSY5.e4721_s2726_r7326_r6282_p2540/
mc15_13TeV:mc15_13TeV.361704.AlpgenPythiaEvtGen_P2012_ZeeNp4.merge.DAOD_SUSY5.e4721_s2726_r7326_r6282_p2540/
mc15_13TeV:mc15_13TeV.361705.AlpgenPythiaEvtGen_P2012_ZeeNp5.merge.DAOD_SUSY5.e4721_s2726_r7326_r6282_p2540/
#mc15_13TeV:mc15_13TeV.361720.AlpgenPythiaEvtGen_P2012_ZtautauNp0.merge.DAOD_SUSY5.e4788_s2726_r7326_r6282_p2540/
#mc15_13TeV:mc15_13TeV.361721.AlpgenPythiaEvtGen_P2012_ZtautauNp1.merge.DAOD_SUSY5.e4721_s2726_r7326_r6282_p2540/
#mc15_13TeV:mc15_13TeV.361722.AlpgenPythiaEvtGen_P2012_ZtautauNp2.merge.DAOD_SUSY5.e4721_s2726_r7326_r6282_p2540/
#mc15_13TeV:mc15_13TeV.361723.AlpgenPythiaEvtGen_P2012_ZtautauNp3.merge.DAOD_SUSY5.e4721_s2726_r7326_r6282_p2540/
#mc15_13TeV:mc15_13TeV.361724.AlpgenPythiaEvtGen_P2012_ZtautauNp4.merge.DAOD_SUSY5.e4721_s2726_r7326_r6282_p2540/
#mc15_13TeV:mc15_13TeV.361725.AlpgenPythiaEvtGen_P2012_ZtautauNp5.merge.DAOD_SUSY5.e4721_s2726_r7326_r6282_p2540/
