mc15_13TeV:mc15_13TeV.361800.AlpgenPythiaEvtGen_P2012_WenuNp0.merge.DAOD_SUSY5.e4721_s2726_r7326_r6282_p2540/
mc15_13TeV:mc15_13TeV.361801.AlpgenPythiaEvtGen_P2012_WenuNp1.merge.DAOD_SUSY5.e4721_s2726_r7326_r6282_p2540/
mc15_13TeV:mc15_13TeV.361802.AlpgenPythiaEvtGen_P2012_WenuNp2.merge.DAOD_SUSY5.e4788_s2726_r7326_r6282_p2540/
mc15_13TeV:mc15_13TeV.361803.AlpgenPythiaEvtGen_P2012_WenuNp3.merge.DAOD_SUSY5.e4721_s2726_r7326_r6282_p2540/
mc15_13TeV:mc15_13TeV.361804.AlpgenPythiaEvtGen_P2012_WenuNp4.merge.DAOD_SUSY5.e4788_s2726_r7326_r6282_p2540/
mc15_13TeV:mc15_13TeV.361805.AlpgenPythiaEvtGen_P2012_WenuNp5.merge.DAOD_SUSY5.e4721_s2726_r7326_r6282_p2540/
